2012.08.14 03:22:14.128 BRT INFO: *** SYSTEM START ***
2012.08.14 03:25:29.077 BRT INFO: *** SYSTEM START ***
2012.08.16 02:55:16.837 BRT INFO: *** SYSTEM START ***
2012.08.16 02:56:42.592 BRT INFO: *** SYSTEM START ***
2012.08.16 12:26:52.321 BRT INFO: *** SYSTEM START ***
2012.08.17 03:15:28.657 BRT INFO: *** SYSTEM START ***
2012.08.19 07:23:23.329 BRT INFO: *** SYSTEM START ***
2012.08.20 13:47:07.258 BRT INFO: *** SYSTEM START ***
2012.08.20 14:17:50.765 BRT INFO: *** SYSTEM START ***
2012.08.20 14:33:16.598 BRT INFO: *** SYSTEM START ***
2012.08.21 15:45:08.325 BRT INFO: *** SYSTEM START ***
2012.08.21 17:41:21.433 BRT INFO: *** SYSTEM START ***
2012.08.24 00:55:54.078 BRT INFO: *** SYSTEM START ***
2012.08.24 01:12:52.303 BRT INFO: *** SYSTEM START ***
2012.08.24 01:55:59.209 BRT INFO: *** SYSTEM START ***
2012.08.24 02:11:35.040 BRT INFO: *** SYSTEM START ***
2012.08.24 02:16:10.361 BRT INFO: *** SYSTEM START ***
2012.08.24 03:24:57.887 BRT INFO: *** SYSTEM START ***
2012.08.24 03:32:42.802 BRT INFO: *** SYSTEM START ***
2012.08.24 04:04:02.199 BRT INFO: *** SYSTEM START ***
2012.08.24 04:20:13.777 BRT INFO: *** SYSTEM START ***
2012.08.24 04:28:18.156 BRT INFO: *** SYSTEM START ***
2012.08.24 04:33:54.667 BRT INFO: *** SYSTEM START ***
