127.0.0.1 - - [23/Aug/2012:12:57:56 -0300] "GET /textos/t1.txt HTTP/1.1" 200 206
127.0.0.1 - - [23/Aug/2012:12:57:56 -0300] "GET /textos/t1.txt HTTP/1.1" 200 206
127.0.0.1 - - [23/Aug/2012:12:57:56 -0300] "GET /favicon.ico HTTP/1.1" 200 21630
127.0.0.1 - - [23/Aug/2012:13:37:31 -0300] "GET /textos/t1.txt HTTP/1.1" 200 286
127.0.0.1 - - [23/Aug/2012:13:37:31 -0300] "GET /favicon.ico HTTP/1.1" 200 21630
127.0.0.1 - - [23/Aug/2012:13:37:31 -0300] "GET /textos/t1.txt HTTP/1.1" 200 286
127.0.0.1 - - [23/Aug/2012:13:39:10 -0300] "GET /textos/t1.txt HTTP/1.1" 200 319
127.0.0.1 - - [23/Aug/2012:13:39:10 -0300] "GET /textos/t1.txt HTTP/1.1" 200 319
127.0.0.1 - - [23/Aug/2012:13:39:10 -0300] "GET /favicon.ico HTTP/1.1" 200 21630
127.0.0.1 - - [23/Aug/2012:13:40:27 -0300] "GET /textos/t1.txt HTTP/1.1" 200 293
127.0.0.1 - - [23/Aug/2012:13:40:27 -0300] "GET /textos/t1.txt HTTP/1.1" 200 293
127.0.0.1 - - [23/Aug/2012:13:41:57 -0300] "GET /textos/t1.txt HTTP/1.1" 200 303
127.0.0.1 - - [23/Aug/2012:13:41:58 -0300] "GET /textos/t1.txt HTTP/1.1" 200 303
127.0.0.1 - - [23/Aug/2012:13:42:52 -0300] "GET /textos/t1.txt HTTP/1.1" 200 313
127.0.0.1 - - [23/Aug/2012:13:42:52 -0300] "GET /textos/t1.txt HTTP/1.1" 200 313
127.0.0.1 - - [23/Aug/2012:13:43:13 -0300] "GET /textos/t1.txt HTTP/1.1" 200 313
127.0.0.1 - - [23/Aug/2012:13:43:13 -0300] "GET /textos/t1.txt HTTP/1.1" 200 313
127.0.0.1 - - [23/Aug/2012:13:44:16 -0300] "GET /textos/t1.txt HTTP/1.1" 200 322
127.0.0.1 - - [23/Aug/2012:13:44:16 -0300] "GET /textos/t1.txt HTTP/1.1" 200 322
127.0.0.1 - - [23/Aug/2012:13:45:36 -0300] "GET /textos/t1.txt HTTP/1.1" 200 336
127.0.0.1 - - [23/Aug/2012:13:45:36 -0300] "GET /textos/t1.txt HTTP/1.1" 200 336
127.0.0.1 - - [23/Aug/2012:13:46:48 -0300] "GET /textos/t1.txt HTTP/1.1" 200 341
127.0.0.1 - - [23/Aug/2012:13:46:48 -0300] "GET /textos/t1.txt HTTP/1.1" 200 341
127.0.0.1 - - [23/Aug/2012:13:49:08 -0300] "GET /textos/t2.txt HTTP/1.1" 200 340
127.0.0.1 - - [23/Aug/2012:13:49:08 -0300] "GET /textos/t2.txt HTTP/1.1" 200 340
127.0.0.1 - - [23/Aug/2012:13:51:46 -0300] "GET /textos/t3.txt HTTP/1.1" 200 299
127.0.0.1 - - [23/Aug/2012:13:51:46 -0300] "GET /textos/t3.txt HTTP/1.1" 200 299
127.0.0.1 - - [23/Aug/2012:13:55:43 -0300] "GET /textos/t4.txt HTTP/1.1" 200 361
127.0.0.1 - - [23/Aug/2012:13:55:43 -0300] "GET /textos/t4.txt HTTP/1.1" 200 361
127.0.0.1 - - [23/Aug/2012:14:00:23 -0300] "GET /textos/t5.txt HTTP/1.1" 200 278
127.0.0.1 - - [23/Aug/2012:14:00:23 -0300] "GET /textos/t5.txt HTTP/1.1" 200 278
127.0.0.1 - - [23/Aug/2012:14:01:06 -0300] "GET /textos/t1.txt HTTP/1.1" 200 341
127.0.0.1 - - [23/Aug/2012:14:01:06 -0300] "GET /textos/t1.txt HTTP/1.1" 200 341
127.0.0.1 - - [23/Aug/2012:14:01:09 -0300] "GET /textos/t2.txt HTTP/1.1" 200 340
127.0.0.1 - - [23/Aug/2012:14:01:09 -0300] "GET /textos/t2.txt HTTP/1.1" 200 340
127.0.0.1 - - [23/Aug/2012:14:01:12 -0300] "GET /textos/t3.txt HTTP/1.1" 200 299
127.0.0.1 - - [23/Aug/2012:14:01:12 -0300] "GET /textos/t3.txt HTTP/1.1" 200 299
127.0.0.1 - - [23/Aug/2012:14:01:14 -0300] "GET /textos/t4.txt HTTP/1.1" 200 361
127.0.0.1 - - [23/Aug/2012:14:01:14 -0300] "GET /textos/t4.txt HTTP/1.1" 200 361
127.0.0.1 - - [23/Aug/2012:14:01:17 -0300] "GET /textos/t5.txt HTTP/1.1" 200 278
127.0.0.1 - - [23/Aug/2012:14:01:17 -0300] "GET /textos/t5.txt HTTP/1.1" 200 278
127.0.0.1 - - [23/Aug/2012:14:08:32 -0300] "GET /textos/t6.txt HTTP/1.1" 200 244
127.0.0.1 - - [23/Aug/2012:14:08:32 -0300] "GET /textos/t6.txt HTTP/1.1" 200 244
127.0.0.1 - - [23/Aug/2012:14:10:25 -0300] "GET /textos/t7.txt HTTP/1.1" 200 232
127.0.0.1 - - [23/Aug/2012:14:10:25 -0300] "GET /textos/t7.txt HTTP/1.1" 200 232
127.0.0.1 - - [23/Aug/2012:14:15:32 -0300] "GET /textos/t1.txt HTTP/1.1" 200 341
127.0.0.1 - - [23/Aug/2012:14:15:32 -0300] "GET /textos/t1.txt HTTP/1.1" 200 341
127.0.0.1 - - [23/Aug/2012:14:15:38 -0300] "GET /textos/t2.txt HTTP/1.1" 200 340
127.0.0.1 - - [23/Aug/2012:14:15:38 -0300] "GET /textos/t2.txt HTTP/1.1" 200 340
127.0.0.1 - - [23/Aug/2012:14:15:42 -0300] "GET /textos/t3.txt HTTP/1.1" 200 299
127.0.0.1 - - [23/Aug/2012:14:15:42 -0300] "GET /textos/t3.txt HTTP/1.1" 200 299
127.0.0.1 - - [23/Aug/2012:14:15:45 -0300] "GET /textos/t4.txt HTTP/1.1" 200 361
127.0.0.1 - - [23/Aug/2012:14:15:46 -0300] "GET /textos/t4.txt HTTP/1.1" 200 361
127.0.0.1 - - [23/Aug/2012:14:15:50 -0300] "GET /textos/t5.txt HTTP/1.1" 200 284
127.0.0.1 - - [23/Aug/2012:14:15:50 -0300] "GET /textos/t5.txt HTTP/1.1" 200 284
127.0.0.1 - - [23/Aug/2012:14:15:55 -0300] "GET /textos/65.txt HTTP/1.1" 404 994
127.0.0.1 - - [23/Aug/2012:14:15:55 -0300] "GET /textos/65.txt HTTP/1.1" 404 994
127.0.0.1 - - [23/Aug/2012:14:15:59 -0300] "GET /textos/t6.txt HTTP/1.1" 200 244
127.0.0.1 - - [23/Aug/2012:14:15:59 -0300] "GET /textos/t6.txt HTTP/1.1" 200 244
127.0.0.1 - - [23/Aug/2012:14:16:09 -0300] "GET /textos/t7.txt HTTP/1.1" 200 229
127.0.0.1 - - [23/Aug/2012:14:16:09 -0300] "GET /textos/t7.txt HTTP/1.1" 200 229
127.0.0.1 - - [23/Aug/2012:14:18:14 -0300] "GET /textos/t1.txt HTTP/1.1" 200 341
127.0.0.1 - - [23/Aug/2012:14:18:14 -0300] "GET /textos/t1.txt HTTP/1.1" 200 341
127.0.0.1 - - [23/Aug/2012:14:18:18 -0300] "GET /textos/t2.txt HTTP/1.1" 200 340
127.0.0.1 - - [23/Aug/2012:14:18:18 -0300] "GET /textos/t2.txt HTTP/1.1" 200 340
127.0.0.1 - - [23/Aug/2012:14:18:21 -0300] "GET /textos/t3.txt HTTP/1.1" 200 299
127.0.0.1 - - [23/Aug/2012:14:18:21 -0300] "GET /textos/t3.txt HTTP/1.1" 200 299
127.0.0.1 - - [23/Aug/2012:14:18:45 -0300] "GET /textos/t1.txt HTTP/1.1" 200 341
127.0.0.1 - - [23/Aug/2012:14:18:45 -0300] "GET /textos/t1.txt HTTP/1.1" 200 341
127.0.0.1 - - [23/Aug/2012:14:18:48 -0300] "GET /textos/t3.txt HTTP/1.1" 200 299
127.0.0.1 - - [23/Aug/2012:14:18:48 -0300] "GET /textos/t3.txt HTTP/1.1" 200 299
127.0.0.1 - - [23/Aug/2012:14:18:50 -0300] "GET /textos/t2.txt HTTP/1.1" 200 340
127.0.0.1 - - [23/Aug/2012:14:18:50 -0300] "GET /textos/t2.txt HTTP/1.1" 200 340
127.0.0.1 - - [23/Aug/2012:14:18:52 -0300] "GET /textos/t4.txt HTTP/1.1" 200 361
127.0.0.1 - - [23/Aug/2012:14:18:52 -0300] "GET /textos/t4.txt HTTP/1.1" 200 361
127.0.0.1 - - [23/Aug/2012:14:18:54 -0300] "GET /textos/t5.txt HTTP/1.1" 200 284
127.0.0.1 - - [23/Aug/2012:14:18:55 -0300] "GET /textos/t5.txt HTTP/1.1" 200 284
127.0.0.1 - - [23/Aug/2012:14:18:58 -0300] "GET /textos/t6.txt HTTP/1.1" 200 244
127.0.0.1 - - [23/Aug/2012:14:18:58 -0300] "GET /textos/t6.txt HTTP/1.1" 200 244
127.0.0.1 - - [23/Aug/2012:14:19:28 -0300] "GET /textos/t7.txt HTTP/1.1" 200 231
127.0.0.1 - - [23/Aug/2012:14:19:28 -0300] "GET /textos/t7.txt HTTP/1.1" 200 231
127.0.0.1 - - [23/Aug/2012:14:27:07 -0300] "GET /textos/t1.txt HTTP/1.1" 200 341
127.0.0.1 - - [23/Aug/2012:14:27:07 -0300] "GET /textos/t1.txt HTTP/1.1" 200 341
127.0.0.1 - - [23/Aug/2012:14:27:10 -0300] "GET /textos/t2.txt HTTP/1.1" 200 340
127.0.0.1 - - [23/Aug/2012:14:27:10 -0300] "GET /textos/t2.txt HTTP/1.1" 200 340
127.0.0.1 - - [23/Aug/2012:14:27:12 -0300] "GET /textos/t3.txt HTTP/1.1" 200 299
127.0.0.1 - - [23/Aug/2012:14:27:12 -0300] "GET /textos/t3.txt HTTP/1.1" 200 299
127.0.0.1 - - [23/Aug/2012:14:27:15 -0300] "GET /textos/t4.txt HTTP/1.1" 200 361
127.0.0.1 - - [23/Aug/2012:14:27:16 -0300] "GET /textos/t4.txt HTTP/1.1" 200 361
127.0.0.1 - - [23/Aug/2012:14:27:18 -0300] "GET /textos/t5.txt HTTP/1.1" 200 284
127.0.0.1 - - [23/Aug/2012:14:27:18 -0300] "GET /textos/t5.txt HTTP/1.1" 200 284
127.0.0.1 - - [23/Aug/2012:14:27:20 -0300] "GET /textos/t6.txt HTTP/1.1" 200 244
127.0.0.1 - - [23/Aug/2012:14:27:21 -0300] "GET /textos/t6.txt HTTP/1.1" 200 244
127.0.0.1 - - [23/Aug/2012:14:27:24 -0300] "GET /textos/t8.txt HTTP/1.1" 200 362
127.0.0.1 - - [23/Aug/2012:14:27:24 -0300] "GET /textos/t8.txt HTTP/1.1" 200 362
127.0.0.1 - - [23/Aug/2012:14:28:46 -0300] "GET /textos/t9.txt HTTP/1.1" 200 361
127.0.0.1 - - [23/Aug/2012:14:28:46 -0300] "GET /textos/t9.txt HTTP/1.1" 200 361
127.0.0.1 - - [23/Aug/2012:14:35:10 -0300] "GET /textos/t10.txt HTTP/1.1" 200 186
127.0.0.1 - - [23/Aug/2012:14:35:10 -0300] "GET /textos/t10.txt HTTP/1.1" 200 186
127.0.0.1 - - [23/Aug/2012:15:57:39 -0300] "GET /textos/t1.txt HTTP/1.1" 200 341
127.0.0.1 - - [23/Aug/2012:15:57:39 -0300] "GET /favicon.ico HTTP/1.1" 200 21630
127.0.0.1 - - [23/Aug/2012:15:57:40 -0300] "GET /textos/t1.txt HTTP/1.1" 200 341
127.0.0.1 - - [23/Aug/2012:15:59:50 -0300] "GET /textos/t2.txt HTTP/1.1" 200 340
127.0.0.1 - - [23/Aug/2012:15:59:51 -0300] "GET /textos/t2.txt HTTP/1.1" 200 340
127.0.0.1 - - [23/Aug/2012:16:00:30 -0300] "GET /textos/t3.txt HTTP/1.1" 200 299
127.0.0.1 - - [23/Aug/2012:16:00:30 -0300] "GET /textos/t3.txt HTTP/1.1" 200 299
127.0.0.1 - - [23/Aug/2012:16:07:19 -0300] "GET /textos/t10.txt HTTP/1.1" 200 186
127.0.0.1 - - [23/Aug/2012:16:07:19 -0300] "GET /textos/t10.txt HTTP/1.1" 200 186
127.0.0.1 - - [23/Aug/2012:16:12:49 -0300] "GET /textos/t4.txt HTTP/1.1" 200 361
127.0.0.1 - - [23/Aug/2012:16:12:50 -0300] "GET /textos/t4.txt HTTP/1.1" 200 361
127.0.0.1 - - [23/Aug/2012:16:14:18 -0300] "GET /textos/t1.txt HTTP/1.1" 200 341
127.0.0.1 - - [23/Aug/2012:16:14:19 -0300] "GET /textos/t1.txt HTTP/1.1" 200 341
127.0.0.1 - - [23/Aug/2012:16:14:22 -0300] "GET /textos/t2.txt HTTP/1.1" 200 340
127.0.0.1 - - [23/Aug/2012:16:14:22 -0300] "GET /textos/t2.txt HTTP/1.1" 200 340
127.0.0.1 - - [23/Aug/2012:16:14:26 -0300] "GET /textos/t3.txt HTTP/1.1" 200 299
127.0.0.1 - - [23/Aug/2012:16:14:26 -0300] "GET /textos/t3.txt HTTP/1.1" 200 299
127.0.0.1 - - [23/Aug/2012:16:14:51 -0300] "GET /textos/t4.txt HTTP/1.1" 200 361
127.0.0.1 - - [23/Aug/2012:16:14:51 -0300] "GET /textos/t4.txt HTTP/1.1" 200 361
