0:0:0:0:0:0:0:1%0 - - [10/Aug/2012:05:15:35 -0300] "GET / HTTP/1.1" 200 11444
0:0:0:0:0:0:0:1%0 - - [10/Aug/2012:05:15:35 -0300] "GET /tomcat.css HTTP/1.1" 200 5926
0:0:0:0:0:0:0:1%0 - - [10/Aug/2012:05:15:35 -0300] "GET /tomcat.png HTTP/1.1" 200 5103
0:0:0:0:0:0:0:1%0 - - [10/Aug/2012:05:15:35 -0300] "GET /bg-nav.png HTTP/1.1" 200 1401
0:0:0:0:0:0:0:1%0 - - [10/Aug/2012:05:15:35 -0300] "GET /bg-button.png HTTP/1.1" 200 713
0:0:0:0:0:0:0:1%0 - - [10/Aug/2012:05:15:35 -0300] "GET /asf-logo.png HTTP/1.1" 200 17811
0:0:0:0:0:0:0:1%0 - - [10/Aug/2012:05:15:35 -0300] "GET /bg-middle.png HTTP/1.1" 200 1918
0:0:0:0:0:0:0:1%0 - - [10/Aug/2012:05:15:35 -0300] "GET /bg-upper.png HTTP/1.1" 200 3103
0:0:0:0:0:0:0:1%0 - - [10/Aug/2012:05:15:35 -0300] "GET /favicon.ico HTTP/1.1" 200 21630
